…
homicide_count_nested = 
   homicide_count %>% 
  nest(data = homi_unsol:homi_total)

homicide_count_unnested = 
  homicide_count_nested %>% 
  mutate(
    prop_city = map(data, prop)) %>% 
  unnest(prop_city)
homicide_count_unnested
```

    ## # A tibble: 50 × 5
    ##    city_state     data             estimate conf.low conf.high
    ##    <chr>          <list>              <dbl>    <dbl>     <dbl>
    ##  1 Albuquerque_NM <tibble [1 × 2]>    0.386    0.337     0.438
    ##  2 Atlanta_GA     <tibble [1 × 2]>    0.383    0.353     0.415
    ##  3 Baltimore_MD   <tibble [1 × 2]>    0.646    0.628     0.663
    ##  4 Baton Rouge_LA <tibble [1 × 2]>    0.462    0.414     0.511
    ##  5 Birmingham_AL  <tibble [1 × 2]>    0.434    0.399     0.469
    ##  6 Boston_MA      <tibble [1 × 2]>    0.505    0.465     0.545
    ##  7 Buffalo_NY     <tibble [1 × 2]>    0.612    0.569     0.654
    ##  8 Charlotte_NC   <tibble [1 × 2]>    0.300    0.266     0.336
    ##  9 Chicago_IL     <tibble [1 × 2]>    0.736    0.724     0.747
    ## 10 Cincinnati_OH  <tibble [1 × 2]>    0.445    0.408     0.483
    ## # … with 40 more rows
…
``` r
sim_results_df = 
  expand_grid(
    true_mean = 0,
    iteration = 1:5000
  ) %>% 
  mutate(
    estimate_df = map(.x = true_mean, ~ sim_power(miu = .x))
  ) %>% 
  unnest(estimate_df)

sim_results_df
```

    ## # A tibble: 5,000 × 4
    ##    true_mean iteration estimate_hat p_value
    ##        <dbl>     <int>        <dbl>   <dbl>
    ##  1         0         1       0.616    0.480
    ##  2         0         2       0.843    0.348
    ##  3         0         3      -0.120    0.880
    ##  4         0         4       0.795    0.303
    ##  5         0         5       0.583    0.531
    ##  6         0         6      -1.18     0.208
    ##  7         0         7      -0.755    0.451
    ##  8         0         8      -0.0971   0.927
    ##  9         0         9      -0.849    0.253
    ## 10         0        10       0.125    0.913
    ## # … with 4,990 more rows
…
``` r
sim_results_df_2 = 
  expand_grid(
    true_mean = c(1:6),
    iteration = 1:5000
  ) %>% 
  mutate(
    estimate_df = map(.x = true_mean, ~ sim_power(miu = .x))
  ) %>% 
  unnest(estimate_df)

sim_results_df_2
```

    ## # A tibble: 30,000 × 4
    ##    true_mean iteration estimate_hat p_value
    ##        <int>     <int>        <dbl>   <dbl>
    ##  1         1         1        0.224  0.771 
    ##  2         1         2        0.744  0.350 
    ##  3         1         3        2.36   0.0164
    ##  4         1         4        0.851  0.370 
    ##  5         1         5        1.84   0.0710
    ##  6         1         6        1.90   0.0376
    ##  7         1         7        2.03   0.0453
    ##  8         1         8        1.13   0.109 
    ##  9         1         9        1.11   0.141 
    ## 10         1        10        1.12   0.237 
    ## # … with 29,990 more rows
…
